id;id_produit;id_commande;quantite
1;69612;11588;45
2;49292;18707;7
3;58297;83678;32
4;57679;51573;1
5;43796;64249;22
6;16715;71664;5
7;70992;43058;11
8;16760;71562;13
9;91370;62106;23
10;20967;2770;50
